2c_plot
…
# but for plotting we need a table not a matrix
corr_df <- corr_mat |> 
  as_tibble(rownames = "proteome") |> #then we produce the long format
  pivot_longer(-proteome,
               names_to = "transcriptome",
               values_to = "corr")
corr_df

# A tibble: 49 × 3
   proteome       transcriptome     corr
   <chr>          <chr>            <dbl>
 1 prot_microglia rna_oligo_div1   0.263
 2 prot_microglia rna_oligo_div2_5 0.245
 3 prot_microglia rna_oligo_div4   0.240
 4 prot_microglia rna_microglia    0.385
 5 prot_microglia rna_astro        0.229
 6 prot_microglia rna_neuron_div5  0.168
 7 prot_microglia rna_neuron_div10 0.158
 8 prot_astro     rna_oligo_div1   0.276
 9 prot_astro     rna_oligo_div2_5 0.263
10 prot_astro     rna_oligo_div4   0.265
# ℹ 39 more rows
…
